{
    "users": [
        {
            "firstName":"Trey",
            "lastName":"Bowery",
            "properties": [
                {"street":"782 Schiller Place","city":"Baton Rouge","state":"LA","zip":"70820","rent":2966},
                {"street":"3040 Saint Paul Trail","city":"Little Rock","state":"AR","zip":"72215","rent":7231}
            ]
        },
        {
            "firstName":"Marrilee",
            "lastName":"Stubley",
            "properties": [
                {"street":"06 Memorial Point","city":"Visalia","state":"CA","zip":"93291","rent":2203},
                {"street":"8 Dennis Hill","city":"Washington","state":"DC","zip":"20046","rent":3704}
            ]
        },
        {
            "firstName":"Seward",
            "lastName":"Doumerc",
            "properties": [
                {"street":"706 Service Terrace","city":"San Francisco","state":"CA","zip":"94137","rent":7950},
                {"street":"814 Hoffman Parkway","city":"Austin","state":"TX","zip":"78737","rent":2503}
            ]
        },
        {
            "firstName":"Prescott",
            "lastName":"McCarthy",
            "properties": [
                {"street":"200 Grasskamp Plaza","city":"Gaithersburg","state":"MD","zip":"20883","rent":4519},
                {"street":"68555 Waubesa Crossing","city":"Montgomery","state":"AL","zip":"36177","rent":8006}
            ]
        },
        {
            "firstName":"Faber",
            "lastName":"Rochford",
            "properties": [
                {"street":"9 Graceland Drive","city":"Washington","state":"DC","zip":"20430","rent":9487},
                {"street":"161 Sunfield Crossing","city":"Monroe","state":"LA","zip":"71213","rent":8577}
            ]
        },
        {
            "firstName":"Trixy",
            "lastName":"Jencken",
            "properties": [
                {"street":"9 Charing Cross Lane","city":"Miami","state":"FL","zip":"33196","rent":5087},
                {"street":"613 Summerview Pass","city":"Fairbanks","state":"AK","zip":"99790","rent":3193}
            ]
        },
        {
            "firstName":"Ardath",
            "lastName":"Edington",
            "properties": [
                {"street":"63 Lakewood Center","city":"Detroit","state":"MI","zip":"48258","rent":9865},
                {"street":"960 Stang Park","city":"New York City","state":"NY","zip":"10039","rent":4448}
            ]
        },
        {
            "firstName":"Marcus",
            "lastName":"Blasio",
            "properties":[
                {"street":"7 Surrey Way","city":"Hayward","state":"CA","zip":"94544","rent":9203},
                {"street":"5683 Mosinee Place","city":"Asheville","state":"NC","zip":"28815","rent":5450}
            ]
        },
        {
            "firstName":"Shani",
            "lastName":"Bilborough",
            "properties": [
                {"street":"60506 Lotheville Road","city":"Columbus","state":"OH","zip":"43210","rent":9219}
                
            ]
        },
        {
            "firstName":"Giraldo",
            "lastName":"Halpin",
            "properties": [
                {"street":"77 Starling Park","city":"Los Angeles","state":"CA","zip":"90189","rent":8967}
            ]
        }
    ]
}